# compile verilog/system verilog design source files
verilog xil_defaultlib  \
"../../../../bin_multiplier.srcs/sources_1/imports/RTL/bmul.v" \
"../../../../bin_multiplier.srcs/sources_1/imports/RTL/bmul_tb.v" \

# compile glbl module
verilog xil_defaultlib "glbl.v"

# Do not sort compile order
nosort
